[
	{
		"title": "Story Title Test",
		"alt": "Testing",
		"nar": "Story Description",
		"logtype": "CW",
		"loghtml": "Missing Images<br><br>Placeholders"
	},
	{
		"title": "Test First Page",
		"alt": "More Testing",
		"nar": "Testing Narration",
		"logtype": "Show Testlog",
		"loghtml": "I love testing..."
	},
	{
		"title": "Test Second Page",
		"alt": "Even More Testing",
		"nar": "More Testing Narration",
		"logtype": "Show Testlog",
		"loghtml": "I REALLY love testing."
	}
]
